<svg width="12" height="12" viewBox="0 0 12 12" fill="none" xmlns="http://www.w3.org/2000/svg">
<path d="M6.71279 11.7044L11.7149 6.70856C11.8059 6.61354 11.8773 6.50149 11.925 6.37883C12.025 6.13557 12.025 5.86272 11.925 5.61946C11.8773 5.49681 11.8059 5.38476 11.7149 5.28973L6.71279 0.29385C6.61951 0.200688 6.50878 0.126788 6.3869 0.0763693C6.26503 0.0259505 6.13441 0 6.00249 0C5.73608 0 5.48058 0.105701 5.2922 0.29385C5.10382 0.481998 4.99799 0.737183 4.99799 1.00326C4.99799 1.26935 5.10382 1.52453 5.2922 1.71268L8.59357 4.99997L1.00042 4.99997C0.735089 4.99997 0.480629 5.10524 0.293015 5.29262C0.1054 5.48001 9.53674e-07 5.73415 9.53674e-07 5.99915C9.53674e-07 6.26415 0.1054 6.51829 0.293015 6.70567C0.480629 6.89305 0.735089 6.99832 1.00042 6.99832L8.59357 6.99832L5.2922 10.2856C5.19843 10.3785 5.12401 10.489 5.07322 10.6108C5.02243 10.7325 4.99628 10.8631 4.99628 10.995C4.99628 11.1269 5.02243 11.2575 5.07322 11.3793C5.12401 11.501 5.19843 11.6116 5.2922 11.7044C5.3852 11.7981 5.49585 11.8724 5.61776 11.9232C5.73967 11.9739 5.87043 12 6.00249 12C6.13456 12 6.26532 11.9739 6.38723 11.9232C6.50914 11.8724 6.61979 11.7981 6.71279 11.7044Z" fill="#FF450C"/>
</svg>
