<svg width="16" height="16" viewBox="0 0 16 16" fill="none" xmlns="http://www.w3.org/2000/svg">
<path d="M11.3335 9.8867C11.2086 10.0109 11.0396 10.0806 10.8635 10.0806C10.6873 10.0806 10.5184 10.0109 10.3935 9.8867L8.00013 7.5267L5.64013 9.8867C5.51522 10.0109 5.34625 10.0806 5.17013 10.0806C4.994 10.0806 4.82504 10.0109 4.70013 9.8867C4.63764 9.82473 4.58805 9.751 4.5542 9.66976C4.52036 9.58852 4.50293 9.50138 4.50293 9.41337C4.50293 9.32536 4.52036 9.23823 4.5542 9.15699C4.58805 9.07575 4.63764 9.00201 4.70013 8.94004L7.5268 6.11337C7.58877 6.05089 7.6625 6.00129 7.74374 5.96744C7.82498 5.9336 7.91212 5.91617 8.00013 5.91617C8.08814 5.91617 8.17527 5.9336 8.25651 5.96744C8.33775 6.00129 8.41149 6.05089 8.47346 6.11337L11.3335 8.94004C11.3959 9.00201 11.4455 9.07575 11.4794 9.15699C11.5132 9.23823 11.5307 9.32536 11.5307 9.41337C11.5307 9.50138 11.5132 9.58852 11.4794 9.66976C11.4455 9.751 11.3959 9.82473 11.3335 9.8867Z" fill="#FF450C"/>
</svg>
