<svg width="64" height="48" viewBox="0 0 64 48" fill="none" xmlns="http://www.w3.org/2000/svg">
<path d="M31.5 39C31.5 39 23.9619 35.8346 21.632 34.0541C19.165 32.0757 18 29.3719 18 26.2725V10.8412C23.9619 7.7418 31.5 8.00558 31.5 8.00558C31.5 8.00558 39.0381 7.7418 45 10.8412V26.2066C45 29.306 43.835 32.0098 41.368 33.9881C39.0381 35.8346 31.5 39 31.5 39ZM19.0964 26.2725C19.0964 29.1741 20.1929 31.5482 22.3173 33.1968C24.236 34.7135 29.9239 37.1535 31.5 37.813C33.0761 37.1535 38.8325 34.6476 40.6827 33.1968C42.8071 31.5482 43.9036 29.1082 43.9036 26.2725V11.105C35.9543 10.3796 26.4975 10.7753 19.0964 17.3699V26.2725Z" fill="white"/>
<path d="M38.4418 24.0596C39.3931 24.6392 39.7737 25.0256 39.8371 25.734C39.8371 26.5068 39.3297 26.9575 38.5052 26.9575C37.8075 26.9575 36.983 26.5712 36.4122 26.056V28.1167C37.1098 28.5031 37.9344 28.8251 38.8223 28.8251C40.9787 28.8251 41.9935 27.2795 41.9935 25.8628C42.057 24.5748 41.6764 23.5444 39.8371 22.4497C39.0126 21.9345 38.3783 21.6125 38.3783 20.8397C38.3783 20.0669 39.076 19.745 39.6468 19.745C40.4079 19.745 41.169 20.1957 41.613 20.6465V18.7146C41.2324 18.3926 40.4079 17.9418 39.2029 18.0062C37.7441 18.0706 36.2219 19.101 36.2219 20.9041C36.2853 22.1277 36.6659 23.0293 38.4418 24.0596ZM30.9577 28.6963C31.1479 28.7607 31.4651 28.8251 31.9725 28.8251C34.446 28.8251 35.8414 26.5712 35.8414 23.3513C35.8414 20.0669 34.3826 18.0706 31.7822 18.0706C30.5771 18.0706 29.6257 18.3282 28.8012 18.8434V33.3974H30.9577V28.6963ZM30.9577 19.9381C31.1479 19.8738 31.4651 19.745 31.7188 19.745C32.9872 19.745 33.4946 20.7753 33.4946 23.2869C33.4946 25.734 32.8604 26.8931 31.5919 26.8931C31.2748 26.8931 31.0211 26.8288 30.8942 26.7644V19.9381H30.9577ZM24.2981 28.8251C25.63 28.8251 26.7716 28.5031 27.5962 27.9235V18.1994H25.3763V26.6356C25.1226 26.8288 24.8055 26.8931 24.3615 26.8931C23.3467 26.8931 23.2199 25.9272 23.2199 25.3476V18.1994H21V25.2188C21 27.6015 22.1416 28.8251 24.2981 28.8251ZM39.076 37.5188V39H39.3297V38.4204H39.3931L39.7737 39H40.0908C40.0908 39 39.7103 38.4204 39.6468 38.356C39.8371 38.2916 39.9639 38.1628 39.9639 37.9696C39.9639 37.7764 39.8371 37.5188 39.4566 37.5188H39.076ZM39.4566 37.712C39.6468 37.712 39.7102 37.8408 39.7102 37.9052C39.7102 38.034 39.6468 38.1628 39.3931 38.1628H39.3297V37.712H39.4566Z" fill="white"/>
<path d="M40.7895 39C40.7895 39.4211 40.4211 39.7895 40 39.7895C39.5789 39.7895 39.2105 39.4211 39.2105 39C39.2105 38.5789 39.5789 38.2105 40 38.2105C40.4737 38.2105 40.7895 38.5789 40.7895 39ZM40 38C39.4737 38 39 38.4211 39 39C39 39.5263 39.4211 40 40 40C40.5263 40 41 39.5789 41 39C41 38.4737 40.5263 38 40 38Z" fill="white"/>
</svg>
